{
	"d":{
		"results":[
			{
				"ProductId":"cd123",
				"ProductDesc":"Product 1",
				"InstanceId":"inst123",
				"Quantity":"1.0",
				"NAV_HEADER_TO_ITEM_NAME":{
					"results":[
					{
						"CharName":"char10",
						"CharLabel":"Char 1",
						"IsRequired":true,
						"Control":"D",
						"InstanceId":"inst123",
						"NAV_ITEM_NAME_TO_VALUE":{
							"results":[
							{
								"CharValue":"value10",
								"CharValueLabel":"Value 1",
								"IsDefault": false,
								"IsValue":false

							},
							{
								"CharValue":"value20",
								"CharValueLabel":"Value 2",
								"IsDefault": true,
								"IsValue":false
								
							},
							{
								"CharValue":"value30",
								"CharValueLabel":"Value 3",
								"IsDefault": false,
								"IsValue":false
								
							}


						]}
					},
					{
						"CharName":"char20",
						"CharLabel":"Char 2",
						"IsRequired":true,
						"Control":"T",
						"InstanceId":"inst123",
						"NAV_ITEM_NAME_TO_VALUE":{
							"results":[
							
						]}
					},
						{
						"CharName":"char30",
						"CharLabel":"Char 3",
						"IsRequired":true,
						"Control":"D",
						"InstanceId":"inst123",
						"NAV_ITEM_NAME_TO_VALUE":{
							"results":[
							{
								"CharValue":"value11",
								"CharValueLabel":"Value 1",
								"IsDefault": false,
								"IsValue":false
							},
							{
								"CharValue":"value21",
								"CharValueLabel":"Value 2",
								"IsDefault": false,
								"IsValue":false
								
							},
							{
								"CharValue":"value31",
								"CharValueLabel":"Value 3",
								"IsDefault": true,
								"IsValue":false
								
							}
						]}
					}
				]},
				"children":[]

			},
			{
				"ProductId":"ef123",
				"InstanceId":"inst134",
				"ProductDesc":"Product 1",
				"Quantity":"1.0",
				"NAV_HEADER_TO_ITEM_NAME":{
					"results":[
					{
						"CharName":"char11",
						"CharLabel":"Char 1",
						"IsRequired":true,
						"Control":"D",
						"InstanceId":"inst134",
						"NAV_ITEM_NAME_TO_VALUE":{
							"results":[
							{
								"CharValue":"value1",
								"CharValueLabel":"Value 1",
								"IsDefault": false,
								"IsValue":false

							},
							{
								"CharValue":"value2",
								"CharValueLabel":"Value 2",
								"IsDefault": true,
								"IsValue":false
								
							},
							{
								"CharValue":"value3",
								"CharValueLabel":"Value 3",
								"IsDefault": false,
								"IsValue":false
								
							}


						]}
					},
					{
						"CharName":"char21",
						"CharLabel":"Char 2",
						"IsRequired":true,
						"Control":"T",
						"InstanceId":"inst134",
						"NAV_ITEM_NAME_TO_VALUE":{

							"results":[
							
						]}
					},
						{
						"CharName":"char31",
						"CharLabel":"Char 3",
						"IsRequired":true,
						"Control":"D",
						"InstanceId":"inst134",
						"NAV_ITEM_NAME_TO_VALUE":{
							"results":[
							{
								"CharValue":"value1",
								"CharValueLabel":"Value 1",
								"IsDefault": false,
								"IsValue":false
							},
							{
								"CharValue":"value2",
								"CharValueLabel":"Value 2",
								"IsDefault": false,
								"IsValue":false
								
							},
							{
								"CharValue":"value3",
								"CharValueLabel":"Value 3",
								"IsDefault": true,
								"IsValue":false
								
							}
						]}
					}
				]},
				"children":[]

			}
		]
}
}