{
	"products":{
		"0": {
			"PRODUCT_ID": "CLOUD_SHARE01",
			"PRODUCT_DESC": "Lexmark Perceptive Cloud Share",
			"QUANTITY": "1.0",
			"UNIT_COST": "$235.0",
			"PROD_IS_CONFIGURABLE":true,
			"LINE_TOTAL": "$1023.45"			
		}
	}
			
}